Sample Information
…
[[19]] NULL

[[20]] NULL

[[21]] NULL

[[22]] NULL

[[23]] NULL

[[24]] NULL

=======

# A tibble: 963 × 7
# Groups:   LabAbbrev [3]
   SampleName  ProjectCode CntrType      QCType CollMethod SampleDepth LabAbbrev
   <chr>       <chr>       <chr>         <chr>  <chr>            <dbl> <chr>    
 1 TPIR9-      Baseline    Msmt          Regul… Msmt                NA Msmt     
 2 TPIR9-9259  Baseline    Plastic Bott… Regul… GS                   0 PIN      
 3 TPIR9-9271  Baseline    Plastic Bott… Regul… GS                   0 PIN      
 4 TPIR14-     Baseline    Msmt          Regul… Msmt                NA Msmt     
 5 TPIR14-     Baseline    Msmt          Dupli… Msmt                NA Msmt     
 6 DUP-9265    Baseline    Plastic Bott… Dupli… GS                   0 PIN      
 7 TPIR14-9266 Baseline    Plastic Bott… Split  GS                   0 PIN      
 8 DUP-9277    Baseline    Plastic Bott… Dupli… GS                   0 PIN      
 9 TPIR14-9278 Baseline    Plastic Bott… Split  GS                   0 PIN      
10 TPIR16-     Baseline    Msmt          Regul… Msmt                NA Msmt     
# ℹ 953 more rows
…
