Water Quality Lab Report Template
…
Water Quality Lab Report Template

Lab Report Header

Collector: JRP

Run Date: 2018-09-19 Run: Passadumkeag

# A tibble: 7,362 × 58
   SiteVisitID         RunCode RunDate    WaterBody SiteCode SiteVisitStartTime
   <chr>               <chr>   <date>     <chr>     <chr>    <chr>             
 1 JanS5-2018925102747 Trib2A  2018-09-25 Tributary TPIR9    9/25/2018 10:27:47
 2 JanS5-2018925102747 Trib2A  2018-09-25 Tributary TPIR9    9/25/2018 10:27:47
 3 JanS5-2018925102747 Trib2A  2018-09-25 Tributary TPIR9    9/25/2018 10:27:47
 4 JanS5-2018925102747 Trib2A  2018-09-25 Tributary TPIR9    9/25/2018 10:27:47
 5 JanS5-2018925102747 Trib2A  2018-09-25 Tributary TPIR9    9/25/2018 10:27:47
 6 JanS5-2018925102747 Trib2A  2018-09-25 Tributary TPIR9    9/25/2018 10:27:47
 7 JanS5-20189251120   Trib2A  2018-09-25 Tributary TPIR14   9/25/2018 11:02:00
 8 JanS5-20189251120   Trib2A  2018-09-25 Tributary TPIR14   9/25/2018 11:02:00
 9 JanS5-20189251120   Trib2A  2018-09-25 Tributary TPIR14   9/25/2018 11:02:00
10 JanS5-20189251120   Trib2A  2018-09-25 Tributary TPIR14   9/25/2018 11:02:00
# ℹ 7,352 more rows
# ℹ 52 more variables: Collectors <chr>, SiteDepth <dbl>,
#   SiteDepthMethod <chr>, SamplingAirTemp <dbl>, Weather <chr>, RivCond <chr>,
#   WaterLevel <chr>, FoamRank <chr>, FoamSource <chr>, SiteVisitComment <chr>,
#   SampleID <chr>, ProjectCode <chr>, SampleDatetime <chr>, Agency_ID <dbl>,
#   Collector <chr>, AgencySampleNumber <lgl>, SampleDepth <dbl>,
#   SampleName <chr>, CollMethod <chr>, Equip <chr>, CntrType <chr>, …
…
