Sample Information
…
 7:                                                                                           battery in DO meter died
 8:                                          Edited;Secchi Scoping; did not due profile due to thunderstorm closing in
 9:                                           Edited;Secchi Scoping; did not do profile due to thunderstorm closing in
10:                                                                                         batteries in DO meter died
11:                                                             batteries in DO meter died, will buy some back in town
12:                                                                                   Secchi Scoping; do meter scoping
13:                                                                              Secchi Scoping; air temp battery died
14:                                                              ph meter was getting odd readings so i did not record
15: accidentally deleted site visit so there is about a 20 minute time difference between the visit and sample/results
16:                                                                                AMR manually changed time at office
17:                                                                      forgot to turn gps on before running droud db
18:                                                                      forgot to turn gps on before running droid db
19:                                                                  forgot to put location on before running droid db

# A tibble: 963 × 7
# Groups:   LabAbbrev [3]
   SampleName  ProjectCode CntrType      QCType CollMethod SampleDepth LabAbbrev
   <chr>       <chr>       <chr>         <chr>  <chr>            <dbl> <chr>    
 1 TPIR9-      Baseline    Msmt          Regul… Msmt                NA Msmt     
 2 TPIR9-9259  Baseline    Plastic Bott… Regul… GS                   0 PIN      
 3 TPIR9-9271  Baseline    Plastic Bott… Regul… GS                   0 PIN      
 4 TPIR14-     Baseline    Msmt          Regul… Msmt                NA Msmt     
 5 TPIR14-     Baseline    Msmt          Dupli… Msmt                NA Msmt     
 6 DUP-9265    Baseline    Plastic Bott… Dupli… GS                   0 PIN      
 7 TPIR14-9266 Baseline    Plastic Bott… Split  GS                   0 PIN      
 8 DUP-9277    Baseline    Plastic Bott… Dupli… GS                   0 PIN      
 9 TPIR14-9278 Baseline    Plastic Bott… Split  GS                   0 PIN      
10 TPIR16-     Baseline    Msmt          Regul… Msmt                NA Msmt     
# ℹ 953 more rows
